transcript
# do thunderbird_fsm.do
# Model Technology ModelSim - Intel FPGA Edition vlog 2020.1 Compiler 2020.02 Feb 28 2020
# Start time: 16:58:26 on Apr 22,2026
# vlog -reportprogress 300 thunderbird_fsm.sv tb_thunderbird.sv 
# -- Compiling module thunderbird_fsm
# -- Compiling module tb
# 
# Top level modules:
# 	tb
# End time: 16:58:26 on Apr 22,2026, Elapsed time: 0:00:00
# Errors: 0, Warnings: 0
# vsim -voptargs="+acc" work.tb 
# Start time: 16:58:26 on Apr 22,2026
# Loading sv_std.std
# Loading work.tb
# Loading work.thunderbird_fsm
# .main_pane.list.interior.cs.body
# .main_pane.wave.interior.cs.body.pw.wf
# ** Warning: (vsim-WLF-5000) WLF file currently in use: vsim.wlf
#           File in use by: piper  Hostname: PS-LENOVO  ProcessID: 3248
#           Attempting to use alternate WLF file "./wlftma4wst".
# ** Warning: (vsim-WLF-5001) Could not open WLF file: vsim.wlf
#           Using alternate file: ./wlftma4wst
# Time=0 | clk=0 | reset=0 | left=0 | right=0 | hazard=0
# Time=5000 | clk=1 | reset=0 | left=0 | right=0 | hazard=0
# Time=10000 | clk=0 | reset=1 | left=0 | right=0 | hazard=0
# Time=15000 | clk=1 | reset=1 | left=0 | right=0 | hazard=0
# Time=20000 | clk=0 | reset=1 | left=0 | right=0 | hazard=0
# Time=25000 | clk=1 | reset=1 | left=0 | right=0 | hazard=0
# Test 1: Idle state - left=0, right=0, hazard=0
# Time=30000 | clk=0 | reset=1 | left=0 | right=0 | hazard=0
# Time=35000 | clk=1 | reset=1 | left=0 | right=0 | hazard=0
# Time=40000 | clk=0 | reset=1 | left=0 | right=0 | hazard=0
# Time=45000 | clk=1 | reset=1 | left=0 | right=0 | hazard=0
# Time=50000 | clk=0 | reset=1 | left=1 | right=0 | hazard=0
# Time=55000 | clk=1 | reset=1 | left=1 | right=0 | hazard=0
# Time=60000 | clk=0 | reset=1 | left=1 | right=0 | hazard=0
# Time=65000 | clk=1 | reset=1 | left=1 | right=0 | hazard=0
# Test 2: Left input - left=1, right=0, hazard=0
# Time=70000 | clk=0 | reset=1 | left=1 | right=0 | hazard=0
# Time=75000 | clk=1 | reset=1 | left=1 | right=0 | hazard=0
# Time=80000 | clk=0 | reset=1 | left=1 | right=0 | hazard=0
# Time=85000 | clk=1 | reset=1 | left=1 | right=0 | hazard=0
# Step 2 - out=000000
# Time=90000 | clk=0 | reset=1 | left=1 | right=0 | hazard=0
# Time=95000 | clk=1 | reset=1 | left=1 | right=0 | hazard=0
# Time=100000 | clk=0 | reset=1 | left=1 | right=0 | hazard=0
# Time=105000 | clk=1 | reset=1 | left=1 | right=0 | hazard=0
# Step 3 - out=000000
# Time=110000 | clk=0 | reset=1 | left=1 | right=0 | hazard=0
# Time=115000 | clk=1 | reset=1 | left=1 | right=0 | hazard=0
# Time=120000 | clk=0 | reset=1 | left=1 | right=0 | hazard=0
# Time=125000 | clk=1 | reset=1 | left=1 | right=0 | hazard=0
# Time=130000 | clk=0 | reset=1 | left=0 | right=0 | hazard=0
# Time=135000 | clk=1 | reset=1 | left=0 | right=0 | hazard=0
# Time=140000 | clk=0 | reset=1 | left=0 | right=0 | hazard=0
# Time=145000 | clk=1 | reset=1 | left=0 | right=0 | hazard=0
# Time=150000 | clk=0 | reset=1 | left=0 | right=1 | hazard=0
# Time=155000 | clk=1 | reset=1 | left=0 | right=1 | hazard=0
# Time=160000 | clk=0 | reset=1 | left=0 | right=1 | hazard=0
# Time=165000 | clk=1 | reset=1 | left=0 | right=1 | hazard=0
# Test 3: Right input - left=0, right=1, hazard=0
# Time=170000 | clk=0 | reset=1 | left=0 | right=1 | hazard=0
# Time=175000 | clk=1 | reset=1 | left=0 | right=1 | hazard=0
# Time=180000 | clk=0 | reset=1 | left=0 | right=1 | hazard=0
# Time=185000 | clk=1 | reset=1 | left=0 | right=1 | hazard=0
# Step 2 - out=000000
# Time=190000 | clk=0 | reset=1 | left=0 | right=1 | hazard=0
# Time=195000 | clk=1 | reset=1 | left=0 | right=1 | hazard=0
# Time=200000 | clk=0 | reset=1 | left=0 | right=1 | hazard=0
# Time=205000 | clk=1 | reset=1 | left=0 | right=1 | hazard=0
# Step 3 - out=000000
# Time=210000 | clk=0 | reset=1 | left=0 | right=1 | hazard=0
# Time=215000 | clk=1 | reset=1 | left=0 | right=1 | hazard=0
# Time=220000 | clk=0 | reset=1 | left=0 | right=1 | hazard=0
# Time=225000 | clk=1 | reset=1 | left=0 | right=1 | hazard=0
# Time=230000 | clk=0 | reset=1 | left=1 | right=1 | hazard=0
# Time=235000 | clk=1 | reset=1 | left=1 | right=1 | hazard=0
# Time=240000 | clk=0 | reset=1 | left=1 | right=1 | hazard=0
# Time=245000 | clk=1 | reset=1 | left=1 | right=1 | hazard=0
# Test 4: Both inputs - left=1, right=1, hazard=0
# End time: 16:59:21 on Apr 22,2026, Elapsed time: 0:00:55
# Errors: 0, Warnings: 2
